﻿  Project14.cpp
e:\c++ repository\eulerproblems\eulerproblem14\project14\project14\project14.cpp(41): warning C4244: 'argument': conversion from '__int64' to 'const unsigned int', possible loss of data
  Project14.vcxproj -> E:\C++ Repository\EulerProblems\EulerProblem14\Project14\Debug\Project14.exe
