^C:\USERS\BROCK\SOURCE\REPOS\PROJECT6\PROJECT6\PROJECT6\DEBUG\SOURCE.OBJ
C:\USERS\BROCK\SOURCE\REPOS\PROJECT6\PROJECT6\DEBUG\PROJECT6.ILK
C:\USERS\BROCK\SOURCE\REPOS\PROJECT6\PROJECT6\DEBUG\PROJECT6.EXE
C:\USERS\BROCK\SOURCE\REPOS\PROJECT6\PROJECT6\DEBUG\PROJECT6.PDB
