^E:\C++ REPOSITORY\EULERPROBLEMS\EULERPROBLEM3\EULERPROBLEM3\EULERPROBLEM3.CPP
E:\C++ REPOSITORY\EULERPROBLEMS\EULERPROBLEM3\EULERPROBLEM3\DEBUG\VC141.PDB
E:\C++ REPOSITORY\EULERPROBLEMS\EULERPROBLEM3\EULERPROBLEM3\DEBUG\VC141.IDB
E:\C++ REPOSITORY\EULERPROBLEMS\EULERPROBLEM3\EULERPROBLEM3\DEBUG\EULERPROBLEM3.OBJ
